{
  "images" : [
    {
      "idiom" : "universal",
      "scale" : "1x",
      "filename" : "Malay_ipad_landheader_1024x44.png"
    },
    {
      "idiom" : "universal",
      "scale" : "2x",
      "filename" : "Malay_ipadretina_landheader_2048x88.png"
    },
    {
      "idiom" : "universal",
      "scale" : "3x"
    }
  ],
  "info" : {
    "version" : 1,
    "author" : "xcode"
  }
}