{
  "images" : [
    {
      "idiom" : "universal",
      "scale" : "1x",
      "filename" : "icon_font_28x29.png"
    },
    {
      "idiom" : "universal",
      "scale" : "2x",
      "filename" : "fontButton_56x57.png"
    },
    {
      "idiom" : "universal",
      "scale" : "3x",
      "filename" : "fontButton_112x114.png"
    }
  ],
  "info" : {
    "version" : 1,
    "author" : "xcode"
  }
}